{
    "KPlugin": {
        "Authors": [
            {
                "Email": "jgrulich@redhat.com",
                "Name": "Jan Grulich",
                "Name[az]": "Jan Grulich",
                "Name[ca]": "Jan Grulich",
                "Name[es]": "Jan Grulich",
                "Name[fr]": "Jan Grulich",
                "Name[hu]": "Jan Grulich",
                "Name[ia]": "Jan Grulich",
                "Name[it]": "Jan Grulich",
                "Name[nl]": "Jan Grulich",
                "Name[sl]": "Jan Grulich",
                "Name[sv]": "Jan Grulich",
                "Name[uk]": "Jan Grulich",
                "Name[x-test]": "xxJan Grulichxx"
            }
        ],
        "Category": "VPNService",
        "Description": "Compatible with L2TP VPN servers",
        "Description[az]": "L2TP ilə uyğun VPN serverləri",
        "Description[ca]": "Compatible amb els servidors VPN del L2TP",
        "Description[es]": "Compatible con servidores VPN de L2TP",
        "Description[fr]": "Compatible avec les serveurs « VPN L2TP »",
        "Description[hu]": "Kompatibilis L2TP VPN kiszolgálókkal",
        "Description[ia]": "Compatibile con servitores L2TP VPN",
        "Description[it]": "Compatibile con i server VPN L2TP",
        "Description[nl]": "Compatibel met L2TP VPN servers",
        "Description[sl]": "Združljivo s strežniki L2TP VPN",
        "Description[sv]": "Kompatibel med L2TP VPN-servrar",
        "Description[uk]": "Сумісні з L2TP сервери VPN",
        "Description[x-test]": "xxCompatible with L2TP VPN serversxx",
        "EnabledByDefault": false,
        "Icon": "",
        "Id": "plasmanetworkmanagement_l2tpui",
        "License": "GPL",
        "Name": "Layer 2 Tunneling Protocol (L2TP)",
        "Name[ar]": "ميفاق تغليف ذو طبقتين (L2TP)",
        "Name[ast]": "Protocolu de túnieles de capa 2 (L2TP)",
        "Name[az]": "İkinci səviyyəli tunelləmə protokolu (L2TP)",
        "Name[ca@valencia]": "Protocol per a crear túnels de 2 capes (L2TP)",
        "Name[ca]": "Protocol per a crear túnels de 2 capes (L2TP)",
        "Name[cs]": "Layer 2 Tunneling Protocol (L2TP)",
        "Name[da]": "Layer 2 tunneling-protokol (L2TP)",
        "Name[de]": "Layer-2-Tunnel-Protokoll (L2TP)",
        "Name[el]": "Πρωτόκολλο διοχέτευσης επιπέδου 2 (L2TP)",
        "Name[en_GB]": "Layer 2 Tunneling Protocol (L2TP)",
        "Name[es]": "Protocolo de túneles de capa 2 (L2TP)",
        "Name[et]": "Layer 2 Tunneling Protocol (L2TP)",
        "Name[eu]": "2. mailako tunel-protokoloa (L2TP)",
        "Name[fi]": "Tason 2 tunnelointiyhteyskäytäntö (L2TP)",
        "Name[fr]": "Protocole tunnel niveau 2 (L2TP)",
        "Name[gl]": "Protocolo de canalización da segunda capa (L2TP)",
        "Name[hu]": "Layer 2 Tunneling Protocol (L2TP)",
        "Name[ia]": "Layer 2 Tunneling Protocol (L2TP)",
        "Name[id]": "Layer 2 Tunneling Protocol (L2TP)",
        "Name[it]": "Layer 2 Tunneling Protocol (L2TP)",
        "Name[ja]": "レイヤ2トンネリングプロトコル(L2TP)",
        "Name[ko]": "레이어 2 터널링 프로토콜(L2TP)",
        "Name[lt]": "Layer 2 tuneliavimo protokolas (L2TP)",
        "Name[ml]": "Layer 2 Tunneling Protocol (L2TP)",
        "Name[nl]": "Layer 2 Tunneling Protocol (L2TP)",
        "Name[nn]": "Layer 2 Tunneling Protocol (L2TP)",
        "Name[pa]": "ਲੇਅਰ 2 ਟਨਲਿੰਗ ਪਰੋਟੋਕਾਲ (L2TP)",
        "Name[pl]": "Protokół tunelujący warstwy 2. (L2TP)",
        "Name[pt]": "Protocolo de Túneis Nível 2 (L2TP)",
        "Name[pt_BR]": "Layer 2 Tunneling Protocol (L2TP)",
        "Name[ru]": "Протокол туннелирования второго уровня (L2TP)",
        "Name[sk]": "Layer 2 Tunneling Protocol (L2TP)",
        "Name[sl]": "Layer 2 Tunneling Protocol (L2TP)",
        "Name[sr@ijekavian]": "Л2ТП (тунелски протокол слоја 2)",
        "Name[sr@ijekavianlatin]": "L2TP (tunelski protokol sloja 2)",
        "Name[sr@latin]": "L2TP (tunelski protokol sloja 2)",
        "Name[sr]": "Л2ТП (тунелски протокол слоја 2)",
        "Name[sv]": "Lager-2 tunnelprotokoll (L2TP)",
        "Name[tr]": "Katman 2 Tünel Protokolü (L2TP)",
        "Name[uk]": "Протокол тунелювання, шар 2 (L2TP)",
        "Name[x-test]": "xxLayer 2 Tunneling Protocol (L2TP)xx",
        "Name[zh_CN]": "第二层隧道协议 (L2TP)",
        "Name[zh_TW]": "第二層通道協定（L2TP）",
        "Version": "0.1",
        "Website": ""
    },
    "X-NetworkManager-Services": "org.freedesktop.NetworkManager.l2tp"
}
