{
    "KPlugin": {
        "Authors": [
            {
                "Email": "jgrulich@redhat.com",
                "Name": "Jan Grulich",
                "Name[az]": "Jan Grulich",
                "Name[ca]": "Jan Grulich",
                "Name[es]": "Jan Grulich",
                "Name[fr]": "Jan Grulich",
                "Name[hu]": "Jan Grulich",
                "Name[ia]": "Jan Grulich",
                "Name[it]": "Jan Grulich",
                "Name[nl]": "Jan Grulich",
                "Name[sl]": "Jan Grulich",
                "Name[sv]": "Jan Grulich",
                "Name[uk]": "Jan Grulich",
                "Name[x-test]": "xxJan Grulichxx"
            }
        ],
        "Category": "VPNService",
        "Description": "Tunnel connections via DNS",
        "Description[az]": "DNS vasitəsi ilə tunel bağlantıları",
        "Description[ca]": "Túnel de connexions via DNS",
        "Description[es]": "Conexiones de túnel que usan DNS",
        "Description[fr]": "Connexions en tunnel via DNS",
        "Description[hu]": "Tunnelkapcsolatok DNS-en keresztül",
        "Description[ia]": "Tunnel connexiones via DNS",
        "Description[it]": "Incapsula le connessioni tramite DNS",
        "Description[nl]": "Tunnelverbindingen via DNS",
        "Description[sl]": "Tuneliranje povezav preko DNS",
        "Description[sv]": "Tunnelanslutningar via DNS",
        "Description[uk]": "Тунельоване з’єднання за допомогою DNS",
        "Description[x-test]": "xxTunnel connections via DNSxx",
        "EnabledByDefault": false,
        "Icon": "",
        "Id": "plasmanetworkmanagement_iodineui",
        "License": "GPL",
        "Name": "Iodine DNS tunnel (iodine)",
        "Name[ar]": "نفق ايوداين (iodine) لـDNS",
        "Name[az]": "Iodine DNS tunnel (iodine)",
        "Name[ca@valencia]": "Túnel de DNS Iodine (iodine)",
        "Name[ca]": "Túnel de DNS Iodine (iodine)",
        "Name[cs]": "Tunnel Iodine DNS (iodine)",
        "Name[da]": "Iodine DNS-tunnel (iodine)",
        "Name[de]": "Iodine DNS-Tunnel (iodine)",
        "Name[el]": "Διοχέτευση Iodine DNS (iodine)",
        "Name[en_GB]": "Iodine DNS tunnel (iodine)",
        "Name[es]": "Túnel DNS Iodine (iodine)",
        "Name[et]": "Iodine DNS-tunnel (iodine)",
        "Name[eu]": "Iodine DNS-tunela (iodine)",
        "Name[fi]": "Iodine-DNS-tunneli (iodine)",
        "Name[fr]": "Tunnel DNS Iodine (iodine)",
        "Name[gl]": "Túnel DNS de Iodine (iodine)",
        "Name[hu]": "Iodine DNS tunnel (iodine)",
        "Name[ia]": "Iodine DNS tunnel (iodine)",
        "Name[id]": "Iodine DNS tunnel (iodine)",
        "Name[it]": "Tunnel DNS Iodine",
        "Name[ko]": "Iodine DNS 터널(iodine)",
        "Name[lt]": "Iodine DNS tunelis (iodine)",
        "Name[ml]": "Iodine DNS tunnel (iodine)",
        "Name[nl]": "Iodine DNS tunnel (iodine)",
        "Name[nn]": "Iodine DNS-tunell (iodine)",
        "Name[pa]": "ਆਈਓਡੀਨ DNS ਟਨਲ (iodine)",
        "Name[pl]": "Tunel Iodine DNS (iodine)",
        "Name[pt]": "Túnel de DNS do Iodine (iodine)",
        "Name[pt_BR]": "Túnel Iodine DNS (iodine)",
        "Name[ru]": "DNS-туннель iodine",
        "Name[sk]": "Iodine DNS tunel (iodine)",
        "Name[sl]": "Tunel DNS Iodine (iodine)",
        "Name[sr@ijekavian]": "Ајодинов ДНС тунеловање (Ајодин)",
        "Name[sr@ijekavianlatin]": "Iodineov DNS tunelovanje (Iodine)",
        "Name[sr@latin]": "Iodineov DNS tunelovanje (Iodine)",
        "Name[sr]": "Ајодинов ДНС тунеловање (Ајодин)",
        "Name[sv]": "Iodine DNS-tunnel (iodine)",
        "Name[tr]": "Iodine DNS tüneli (iodine)",
        "Name[uk]": "Тунель Iodine DNS (iodine)",
        "Name[x-test]": "xxIodine DNS tunnel (iodine)xx",
        "Name[zh_CN]": "Iodine DNS 隧道 (iodine)",
        "Name[zh_TW]": "Iodine DNS 通道 (iodine)",
        "Version": "0.1",
        "Website": ""
    },
    "X-NetworkManager-Services": "org.freedesktop.NetworkManager.iodine"
}
