{
    "KPlugin": {
        "Description": "Provides secrets to the NetworkManager daemon",
        "Description[az]": "NetworkManager xidməti üçün şifrə və açar təqdim edir",
        "Description[ca]": "Proporciona secrets al dimoni NetworkManager",
        "Description[es]": "Proporciona contraseñas al demonio de NetworkManager",
        "Description[fr]": "Fournit des éléments secrets pour le démon « NetworkManager »",
        "Description[hu]": "Titkokat biztosít a NetworkManager démonhoz",
        "Description[ia]": "Forni secretos per le demon de NetworkManager",
        "Description[it]": "Fornisce i segreti al demone NetworkManager",
        "Description[nl]": "Levert secrets aan de NetworkManager-daemon",
        "Description[sl]": "Ponuja skrivnosti za odzadnji program NetworkManager",
        "Description[sv]": "Tillhandahåller hemligheter till nätverkshanteringsdemonen",
        "Description[uk]": "Надає реєстраційні дані фоновій службі NetworkManager",
        "Description[x-test]": "xxProvides secrets to the NetworkManager daemonxx",
        "Name": "Plasma Network Management module",
        "Name[ar]": "وحدة بلازما لإدارة الشّبكة",
        "Name[ast]": "Módulu de la xestión de redes de Plasma",
        "Name[az]": "Plasma şəbəkə idarəetmə modulu",
        "Name[ca@valencia]": "Mòdul del Plasma de Gestió de la xarxa",
        "Name[ca]": "Mòdul del Plasma de Gestió de la xarxa",
        "Name[cs]": "Modul Plasma pro správu sítě",
        "Name[da]": "Plasma netværkshåndteringsmodul",
        "Name[de]": "Plasma-Netzwerkverwaltungsmodul",
        "Name[en_GB]": "Plasma Network Management module",
        "Name[es]": "Modulo de gestión de redes de Plasma",
        "Name[et]": "Plasma võrguhalduse moodul",
        "Name[eu]": "Plasmako Sareak Kudeatzeko modulua",
        "Name[fi]": "Plasman verkonhallintamoduuli",
        "Name[fr]": "Module de gestion du réseau pour Plasma",
        "Name[gl]": "Módulo de xestión da rede de Plasma",
        "Name[hsb]": "Plasma-modul za rjadowanje syće",
        "Name[hu]": "Plasma hálózatkezelés modul",
        "Name[ia]": "Modulo de gestion de rete de Plasma",
        "Name[id]": "Modul Pengelolaan Jaringan Plasma",
        "Name[it]": "Modulo della gestione di rete di Plasma",
        "Name[ko]": "Plasma 네트워크 관리 모듈",
        "Name[lt]": "Plasma tinklo valdymo modulis",
        "Name[ml]": "പ്ലാസ്മ ശൃംഖല നടത്തിപ്പ്‌ മൊഡ്യൂൾ",
        "Name[nl]": "Plasma module voor netwerkbeheer",
        "Name[nn]": "Plasma-modul for nettverksstyring",
        "Name[pa]": "ਪਲਾਜ਼ਮਾ ਨੈੱਟਵਰਕ ਇੰਤਜ਼ਾਮ ਮੋਡੀਊਲ",
        "Name[pl]": "Moduł Plazmy do zarządzania siecią",
        "Name[pt]": "Módulo de Gestão de Rede do Plasma",
        "Name[pt_BR]": "Módulo de Gerenciamento de Rede do Plasma",
        "Name[ro]": "Modul Plasma pentru gestiunea rețelei",
        "Name[ru]": "Модуль для управления сетью",
        "Name[sk]": "Modul správy siete pre Plasmu",
        "Name[sl]": "Plasmin modul za upravljanje omrežij",
        "Name[sv]": "Plasma nätverkshanteringsmodul",
        "Name[ta]": "பிளாஸ்மா பிணைய மேலாண்மை கூறு",
        "Name[tr]": "Plasma Ağ Yönetim Modülü",
        "Name[uk]": "Модуль керування мережею Плазми",
        "Name[x-test]": "xxPlasma Network Management modulexx",
        "Name[zh_CN]": "Plasma 网络管理模块",
        "Name[zh_TW]": "Plasma 網路管理模組",
        "ServiceTypes": [
            "KDEDModule"
        ]
    },
    "OnlyShowIn": "KDE;",
    "X-KDE-Kded-autoload": true,
    "X-KDE-Kded-load-on-demand": true,
    "X-KDE-Kded-phase": 1,
    "X-KDE-ModuleType": "Library"
}
