{
    "KPlugin": {
        "Authors": [
            {
                "Email": "jgrulich@redhat.com",
                "Name": "Jan Grulich",
                "Name[az]": "Jan Grulich",
                "Name[ca]": "Jan Grulich",
                "Name[es]": "Jan Grulich",
                "Name[fr]": "Jan Grulich",
                "Name[hu]": "Jan Grulich",
                "Name[ia]": "Jan Grulich",
                "Name[it]": "Jan Grulich",
                "Name[nl]": "Jan Grulich",
                "Name[sl]": "Jan Grulich",
                "Name[sv]": "Jan Grulich",
                "Name[uk]": "Jan Grulich",
                "Name[x-test]": "xxJan Grulichxx"
            }
        ],
        "Category": "VPNService",
        "Description": "Fortinet SSLVPN virtual private networks",
        "Description[az]": "Fortinet SSLVPN virtual gizli şəbəkələri",
        "Description[ca]": "Xarxes privades virtuals Fortinet SSLVPN",
        "Description[es]": "Redes privadas virtuales SSLVPN de Fortinet",
        "Description[fr]": "Réseaux privés virtuels « SSLVPN Fortinet »",
        "Description[hu]": "Fortinet SSLVPN virtuális magánhálózat",
        "Description[ia]": "Fortinet SSLVPN retes virtual private",
        "Description[it]": "Reti private virtuali Fortinet SSLVPN",
        "Description[nl]": "Fortinet SSLVPN virtuele private netwerken",
        "Description[sl]": "Navidezna zasebna omrežja Fortinet SSLVPN",
        "Description[sv]": "Fortinet SSLVPN virtuella privata nätverk",
        "Description[uk]": "Віртуальні приватні мережі SSLVPN Fortinet",
        "Description[x-test]": "xxFortinet SSLVPN virtual private networksxx",
        "EnabledByDefault": false,
        "Icon": "",
        "Id": "plasmanetworkmanagement_fortisslvpnui",
        "License": "GPL",
        "Name": "Fortinet SSLVPN (fortisslvpn)",
        "Name[ar]": "فورت نت SSLVPN (fortisslvpn)",
        "Name[ast]": "SSLVPN de Fortinet (fortisslvpn)",
        "Name[az]": "Fortinet SSLVPN (fortisslvpn)",
        "Name[ca@valencia]": "Fortinet SSLVPN (fortisslvpn)",
        "Name[ca]": "Fortinet SSLVPN (fortisslvpn)",
        "Name[cs]": "Fortinet SSLVPN (fortisslvpn)",
        "Name[da]": "Fortinet SSLVPN (fortisslvpn)",
        "Name[de]": "Fortinet SSLVPN (fortisslvpn)",
        "Name[el]": "Fortinet SSLVPN (fortisslvpn)",
        "Name[en_GB]": "Fortinet SSLVPN (fortisslvpn)",
        "Name[es]": "SSLVPN de Fortinet (fortisslvpn)",
        "Name[et]": "Fortinet SSLVPN (fortisslvpn)",
        "Name[eu]": "Fortinet SSLVPN (fortisslvpn)",
        "Name[fi]": "Fortinet SSLVPN (fortisslvpn)",
        "Name[fr]": "SSLVPN Fortinet (fortisslvpn)",
        "Name[gl]": "VPN SSL de Fortinet (fortisslvpn)",
        "Name[hu]": "Fortinet SSLVPN (fortisslvpn)",
        "Name[ia]": "Fortinet SSLVPN (fortisslvpn)",
        "Name[id]": "Fortinet SSLVPN (fortisslvpn)",
        "Name[it]": "Fortinet SSLVPN (fortisslvpn)",
        "Name[ko]": "Fortinet SSLVPN (fortisslvpn)",
        "Name[lt]": "Fortinet SSLVPN (fortisslvpn)",
        "Name[ml]": "Fortinet SSLVPN (fortisslvpn)",
        "Name[nl]": "Fortinet SSLVPN (fortisslvpn)",
        "Name[nn]": "Fortinet SSLVPN (fortisslvpn)",
        "Name[pa]": "ਫੋਰਟੀਨੈੱਟ SSLVPN (fortisslvpn)",
        "Name[pl]": "Fortinet SSLVPN (fortisslvpn)",
        "Name[pt]": "SSLVPN do Fortinet (fortisslvpn)",
        "Name[pt_BR]": "Fortinet SSLVPN (fortisslvpn)",
        "Name[ru]": "Fortinet SSLVPN (fortisslvpn)",
        "Name[sk]": "Fortinet SSLVPN (fortisslvpn)",
        "Name[sl]": "Fortinet SSLVPN (fortisslvpn)",
        "Name[sr@ijekavian]": "Фортинетов ССЛ ВПН",
        "Name[sr@ijekavianlatin]": "Fortinetov SSL VPN",
        "Name[sr@latin]": "Fortinetov SSL VPN",
        "Name[sr]": "Фортинетов ССЛ ВПН",
        "Name[sv]": "Fortinet SSLVPN (fortisslvpn)",
        "Name[tr]": "Fortinet SSLVPN (fortisslvpn)",
        "Name[uk]": "Fortinet SSLVPN (fortisslvpn)",
        "Name[x-test]": "xxFortinet SSLVPN (fortisslvpn)xx",
        "Name[zh_CN]": "Fortinet SSLVPN (fortisslvpn)",
        "Name[zh_TW]": "Fortinet SSLVPN (fortisslvpn)",
        "Version": "0.1",
        "Website": ""
    },
    "X-NetworkManager-Services": "org.freedesktop.NetworkManager.fortisslvpn"
}
