{
    "KPlugin": {
        "Authors": [
            {
                "Email": "jgrulich@redhat.com",
                "Name": "Jan Grulich",
                "Name[az]": "Jan Grulich",
                "Name[ca]": "Jan Grulich",
                "Name[es]": "Jan Grulich",
                "Name[fr]": "Jan Grulich",
                "Name[hu]": "Jan Grulich",
                "Name[ia]": "Jan Grulich",
                "Name[it]": "Jan Grulich",
                "Name[nl]": "Jan Grulich",
                "Name[sl]": "Jan Grulich",
                "Name[sv]": "Jan Grulich",
                "Name[uk]": "Jan Grulich",
                "Name[x-test]": "xxJan Grulichxx"
            }
        ],
        "Category": "VPNService",
        "Description": "Compatible with PAN GlobalProtect SSL VPN",
        "Description[az]": "PAN GlobalProtect  ilə uyğun SSL VPN",
        "Description[ca]": "Compatible amb la PAN VPN SSL de GlobalProtect",
        "Description[es]": "Compatible con VPN SSL de PAN GlobalProtect",
        "Description[fr]": "Compatible avec les VPN « SSL GlobalProtect PAN »",
        "Description[hu]": "Kompatibilis a PAN GlobalProtect SSL VPN-nel",
        "Description[ia]": "Compatibile con PAN GlobalProtect SSL VPN",
        "Description[it]": "Compatibile con PAN Global Protect SSL VPN",
        "Description[nl]": "Compatibel met PAN GlobalProtect SSL VPN",
        "Description[sl]": "Združljivo s PAN GlobalProtect SSL VPN",
        "Description[sv]": "Kompatibel med PAN GlobalProtect SSL VPN",
        "Description[uk]": "Сумісний із VPN SSL PAN GlobalProtect",
        "Description[x-test]": "xxCompatible with PAN GlobalProtect SSL VPNxx",
        "EnabledByDefault": false,
        "Icon": "",
        "Id": "plasmanetworkmanagement_openconnect_globalprotect",
        "License": "GPL",
        "Name": "PAN Global Protect (openconnect)",
        "Name[ar]": "خادم PAN Global Protect بواسطة (openconnect)",
        "Name[ast]": "GlobalProtect de Palo Alto Networks (openconnect)",
        "Name[az]": "PAN Global Protect (openconnect)",
        "Name[ca@valencia]": "PAN de Global Protect (openconnect)",
        "Name[ca]": "PAN de Global Protect (openconnect)",
        "Name[cs]": "PAN Global Protect (openconnect)",
        "Name[da]": "PAN Global Protect (openconnect)",
        "Name[de]": "PAN Global Protect (openconnect)",
        "Name[en_GB]": "PAN Global Protect (openconnect)",
        "Name[es]": "PAN GlobalProtect (openconnect)",
        "Name[et]": "PAN Global Protect (openconnect)",
        "Name[eu]": "PAN Global Protect (openconnect)",
        "Name[fi]": "PAN Global Protect (openconnect)",
        "Name[fr]": "PAN Global Protect (openconnect)",
        "Name[gl]": "PAN Global Protect (openconnect)",
        "Name[hu]": "PAN Global Protect (openconnect)",
        "Name[ia]": "PAN Global Protect (openconnect)",
        "Name[id]": "PAN Global Protect (openconnect)",
        "Name[it]": "PAN Global Protect (openconnect)",
        "Name[ko]": "PAN Global Protect(openconnect)",
        "Name[lt]": "PAN Global Protect (openconnect)",
        "Name[ml]": "പാൻ ആഗോള സംരക്ഷണം (ഓപ്പൺകണക്റ്റ്)",
        "Name[nl]": "PAN Global Protect (openconnect)",
        "Name[nn]": "PAN Global Protect (OpenConnect)",
        "Name[pl]": "Globalna ochrona PAN (openconnect)",
        "Name[pt]": "Protecção Global do PAN (openconnect)",
        "Name[pt_BR]": "Proteção Global do PAN (openconnect)",
        "Name[ru]": "PAN GlobalProtect (openconnect)",
        "Name[sk]": "PAN Global Protect (openconnect)",
        "Name[sl]": "PAN Global Protect (openconnect)",
        "Name[sv]": "PAN Global Protect (openconnect)",
        "Name[tr]": "PAN küresel koruma (openconnect)",
        "Name[uk]": "Загальний захист PAN (openconnect)",
        "Name[x-test]": "xxPAN Global Protect (openconnect)xx",
        "Name[zh_CN]": "PAN 全局保护 (openconnect)",
        "Name[zh_TW]": "PAN Global Protect 全域保護 (openconnect)",
        "Version": "0.1",
        "Website": ""
    },
    "X-NetworkManager-Services": "org.freedesktop.NetworkManager.openconnect",
    "X-NetworkManager-Services-Subtype": "gp"
}
